<?xml version="1.0" encoding="utf-8"?>
<!-- Generator: Adobe Illustrator 19.0.0, SVG Export Plug-In . SVG Version: 6.00 Build 0)  -->
<svg version="1.1" id="Calque_1" xmlns="http://www.w3.org/2000/svg" xmlns:xlink="http://www.w3.org/1999/xlink" x="0px" y="0px"
	 viewBox="0 0 1230 300" style="enable-background:new 0 0 1230 300;" xml:space="preserve">
<style type="text/css">
	.st0{fill:#FFFFFF;}
	.st1{fill:#4FC1EA;}
</style>
<rect x="13" y="5.1" class="st0" width="131.9" height="291.5"/>
<rect x="156.9" y="5.1" class="st0" width="131.9" height="137.9"/>
<rect x="156.9" y="156" class="st1" width="131.9" height="140.7"/>
</svg>
